egworkflow • blockstrap
…
df2<- df |>  
  group_by(sID) |>
  mutate( Adate = as.Date(Adate),
          Ddate = as.Date(Ddate)) |>
  arrange(Adate, .by_group= TRUE) |>
  mutate( diff_time = Adate - lag(Ddate),
          is_start = is.na(diff_time) | diff_time > 40,
          idx_within_sid = cumsum(is_start),
          idx_block = as.factor(paste0(sID, "_", idx_within_sid)))

df2
#> # A tibble: 231 × 8
#> # Groups:   sID [100]
#>    sID   fID   Adate      Ddate      diff_time is_start idx_within_sid idx_block
#>    <chr> <chr> <date>     <date>     <drtn>    <lgl>             <int> <fct>    
#>  1 s001  f07   2019-01-23 2019-02-02 NA days   TRUE                  1 s001_1   
#>  2 s001  f01   2019-03-07 2019-03-10 33 days   FALSE                 1 s001_1   
#>  3 s002  f05   2019-02-24 2019-03-03 NA days   TRUE                  1 s002_1   
#>  4 s002  f10   2019-03-25 2019-03-27 22 days   FALSE                 1 s002_1   
#>  5 s002  f06   2019-04-23 2019-04-27 27 days   FALSE                 1 s002_1   
#>  6 s003  f09   2019-02-08 2019-02-15 NA days   TRUE                  1 s003_1   
#>  7 s003  f01   2019-03-26 2019-04-02 39 days   FALSE                 1 s003_1   
#>  8 s004  f10   2019-01-30 2019-02-04 NA days   TRUE                  1 s004_1   
#>  9 s004  f09   2019-02-19 2019-02-23 15 days   FALSE                 1 s004_1   
#> 10 s004  f07   2019-03-29 2019-04-07 34 days   FALSE                 1 s004_1   
#> # ℹ 221 more rows
…
